\relax 
\providecommand\HyperFirstAtBeginDocument{\AtBeginDocument}
\HyperFirstAtBeginDocument{\ifx\hyper@anchor\@undefined
\global\let\oldcontentsline\contentsline
\gdef\contentsline#1#2#3#4{\oldcontentsline{#1}{#2}{#3}}
\global\let\oldnewlabel\newlabel
\gdef\newlabel#1#2{\newlabelxx{#1}#2}
\gdef\newlabelxx#1#2#3#4#5#6{\oldnewlabel{#1}{{#2}{#3}}}
\AtEndDocument{\ifx\hyper@anchor\@undefined
\let\contentsline\oldcontentsline
\let\newlabel\oldnewlabel
\fi}
\fi}
\global\let\hyper@last\relax 
\gdef\HyperFirstAtBeginDocument#1{#1}
\providecommand\HyField@AuxAddToFields[1]{}
\newmarginnote{note.1.1}{{1}{6554350sp}}
\newmarginnote{note.1.2}{{1}{6554350sp}}
\newmarginnote{note.1.3}{{1}{6554350sp}}
\newmarginnote{note.1.4}{{1}{6554350sp}}
\newmarginnote{note.1.5}{{1}{6554350sp}}
\newmarginnote{note.1.6}{{1}{6554350sp}}
\newmarginnote{note.1.7}{{1}{6554350sp}}
\newmarginnote{note.1.8}{{1}{6554350sp}}
\newmarginnote{note.1.9}{{1}{6554350sp}}
\newmarginnote{note.1.10}{{1}{6554350sp}}
\newmarginnote{note.1.11}{{1}{6554350sp}}
\newmarginnote{note.1.12}{{1}{6554350sp}}
\newmarginnote{note.1.13}{{1}{6554350sp}}
\newmarginnote{note.1.14}{{1}{6554350sp}}
\newmarginnote{note.1.15}{{1}{6554350sp}}
\newmarginnote{note.1.16}{{1}{6554350sp}}
\newmarginnote{note.1.17}{{1}{6554350sp}}
\newmarginnote{note.1.18}{{1}{6554350sp}}
\newmarginnote{note.1.19}{{2}{6554350sp}}
\newmarginnote{note.1.20}{{2}{6554350sp}}
\newmarginnote{note.1.21}{{2}{6554350sp}}
\newmarginnote{note.1.22}{{2}{6554350sp}}
\newmarginnote{note.1.23}{{2}{6554350sp}}
\newmarginnote{note.1.24}{{2}{6554350sp}}
\newmarginnote{note.1.25}{{2}{6554350sp}}
\newmarginnote{note.1.26}{{2}{6554350sp}}
\newmarginnote{note.1.27}{{2}{6554350sp}}
\newmarginnote{note.1.28}{{2}{6554350sp}}
\newmarginnote{note.1.29}{{2}{6554350sp}}
\newmarginnote{note.1.30}{{2}{6554350sp}}
\newmarginnote{note.1.31}{{2}{6554350sp}}
\newmarginnote{note.2.1}{{2}{6554350sp}}
\newmarginnote{note.2.2}{{2}{6554350sp}}
\newmarginnote{note.2.3}{{2}{6554350sp}}
\newmarginnote{note.2.4}{{2}{6554350sp}}
\newmarginnote{note.2.5}{{2}{6554350sp}}
\newmarginnote{note.2.6}{{2}{6554350sp}}
\newmarginnote{note.2.7}{{2}{6554350sp}}
\newmarginnote{note.2.8}{{3}{6554350sp}}
\newmarginnote{note.2.9}{{3}{6554350sp}}
\newmarginnote{note.2.10}{{3}{6554350sp}}
\newmarginnote{note.2.11}{{3}{6554350sp}}
\newmarginnote{note.2.12}{{3}{6554350sp}}
\newmarginnote{note.2.13}{{3}{6554350sp}}
\newmarginnote{note.2.14}{{3}{6554350sp}}
\newmarginnote{note.2.15}{{3}{6554350sp}}
\newmarginnote{note.2.16}{{3}{6554350sp}}
\newmarginnote{note.2.17}{{3}{6554350sp}}
\newmarginnote{note.2.18}{{3}{6554350sp}}
\newmarginnote{note.2.19}{{3}{6554350sp}}
\newmarginnote{note.2.20}{{3}{6554350sp}}
\newmarginnote{note.2.21}{{3}{6554350sp}}
\newmarginnote{note.2.22}{{3}{6554350sp}}
\newmarginnote{note.2.23}{{3}{6554350sp}}
\newmarginnote{note.2.24}{{3}{6554350sp}}
\newmarginnote{note.3.1}{{3}{6554350sp}}
\newmarginnote{note.3.2}{{3}{6554350sp}}
\newmarginnote{note.3.3}{{4}{6554350sp}}
\newmarginnote{note.3.4}{{4}{6554350sp}}
\newmarginnote{note.3.5}{{4}{6554350sp}}
\newmarginnote{note.3.6}{{4}{6554350sp}}
\newmarginnote{note.3.7}{{4}{6554350sp}}
\newmarginnote{note.3.8}{{4}{6554350sp}}
\newmarginnote{note.3.9}{{4}{6554350sp}}
\newmarginnote{note.3.10}{{4}{6554350sp}}
\newmarginnote{note.3.11}{{4}{6554350sp}}
\newmarginnote{note.3.12}{{4}{6554350sp}}
\newmarginnote{note.3.13}{{4}{6554350sp}}
\newmarginnote{note.3.14}{{4}{6554350sp}}
\newmarginnote{note.3.15}{{4}{6554350sp}}
\newmarginnote{note.3.16}{{4}{6554350sp}}
\newmarginnote{note.3.17}{{4}{6554350sp}}
\newmarginnote{note.3.18}{{4}{6554350sp}}
\newmarginnote{note.3.19}{{4}{6554350sp}}
\newmarginnote{note.3.20}{{4}{6554350sp}}
\newmarginnote{note.3.21}{{5}{6554350sp}}
\newmarginnote{note.3.22}{{5}{6554350sp}}
\newmarginnote{note.3.23}{{5}{6554350sp}}
\newmarginnote{note.3.24}{{5}{6554350sp}}
\newmarginnote{note.3.25}{{5}{6554350sp}}
\newmarginnote{note.3.26}{{5}{6554350sp}}
\newmarginnote{note.3.27}{{5}{6554350sp}}
\newmarginnote{note.3.28}{{5}{6554350sp}}
\newmarginnote{note.3.29}{{5}{6554350sp}}
\newmarginnote{note.3.30}{{5}{6554350sp}}
\newmarginnote{note.3.31}{{5}{6554350sp}}
\newmarginnote{note.3.32}{{5}{6554350sp}}
\newmarginnote{note.3.33}{{5}{6554350sp}}
\newmarginnote{note.3.34}{{5}{6554350sp}}
\newmarginnote{note.3.35}{{5}{6554350sp}}
\newmarginnote{note.3.36}{{5}{6554350sp}}
\newmarginnote{note.3.37}{{5}{6554350sp}}
\newmarginnote{note.3.38}{{5}{6554350sp}}
\newmarginnote{note.3.39}{{5}{6554350sp}}
\newmarginnote{note.6.1}{{6}{6554350sp}}
\newmarginnote{note.6.2}{{6}{6554350sp}}
